IWMLC: Meta-Analyses of Complexity Results
…
Effect Size

Statistical significance is only one part of the story. For instance, a difference in complexity values might be statistically significant, but so small that it is negligible for any theorizing. In fact, it is sometimes argued that effect sizes - rather than p-values - should be the aim of statistical inquiry (Cahusac 2020, p.12-15). An overview of effect size measures per statistical test is given in Patil (2020). In conjunction with the Wilcoxon signed rank test we here use the statistic r (i.e.function wilcox_effsize() of the rstatix package).

effect.sizes <- wilcox_effsize(results.long, value ~ language, paired = F)
print(effect.sizes)

## # A tibble: 946 x 7
##    .y.   group1    group2        effsize    n1    n2 magnitude
##  * <chr> <chr>     <chr>           <dbl> <int> <int> <ord>    
##  1 value Afrikaans Ancient Greek 0.0817     24    48 small    
##  2 value Afrikaans Arabic        0.0685     24    24 small    
##  3 value Afrikaans Basque        0.0643     24    25 small    
##  4 value Afrikaans Bulgarian     0.119      24    24 small    
##  5 value Afrikaans Catalan       0.104      24    24 small    
##  6 value Afrikaans Chinese       0.00143    24    25 small    
##  7 value Afrikaans Croatian      0.107      24    25 small    
##  8 value Afrikaans Czech         0.0521     24    75 small    
##  9 value Afrikaans Danish        0.0643     24    25 small    
## 10 value Afrikaans Dutch         0.249      24    48 small    
## #  with 936 more rows
…
